{
  "type" : "FeatureCollection",
  "features" : [
    {
      "type" : "Feature",
      "id" : 31,
      "geometry" : {
        "type" : "Polygon",
        "coordinates" : [
          [
            [
              -9.1572482349999405,
              38.75675319100003
            ],
            [
              -9.1566036649999774,
              38.756951669000046
            ],
            [
              -9.1566801239999336,
              38.757103896000046
            ],
            [
              -9.1568702629999734,
              38.75704535400007
            ],
            [
              -9.1569461689999798,
              38.757195288000048
            ],
            [
              -9.156787579999957,
              38.757244023000055
            ],
            [
              -9.1569389029999684,
              38.757545310000069
            ],
            [
              -9.1571017279999296,
              38.757495176000077
            ],
            [
              -9.1570534639999437,
              38.757399071000066
            ],
            [
              -9.1571154429999524,
              38.75737999200004
            ],
            [
              -9.1571637189999251,
              38.757476097000051
            ],
            [
              -9.1573265439999432,
              38.75742594500008
            ],
            [
              -9.1572782789999678,
              38.757329840000068
            ],
            [
              -9.1573402579999765,
              38.757310761000042
            ],
            [
              -9.1573885229999519,
              38.757406866000053
            ],
            [
              -9.1575513599999567,
              38.757356731000073
            ],
            [
              -9.1572482349999405,
              38.75675319100003
            ]
          ]
        ]
      },
      "properties" : {
        "OBJECTID" : 31,
        "name" : "first floor",
        "SHAPE_Leng" : 23.880855662399998,
        "Shape_Length" : 0.003461233971375469,
        "Shape_Area" : 3.9126786575314995e-07
      }
    }
  ]
}